Iteration,Niter,# Cores,# Threads,Time,Pi Approx.
1,10000000,8,2,18.711567,3.141224
2,10000000,8,2,20.276221,3.142406
3,10000000,8,2,19.570369,3.141656
4,10000000,8,2,15.183938,3.14156
5,10000000,8,2,8.893394,3.141921
6,10000000,8,2,9.192242,3.141817
7,10000000,8,2,11.883745,3.141907
8,10000000,8,2,11.840712,3.142166
9,10000000,8,2,9.142975,3.141292
10,10000000,8,2,9.154475,3.140885
11,10000000,8,2,9.319057,3.141441
12,10000000,8,2,9.063374,3.141753
13,10000000,8,2,8.940811,3.142273
14,10000000,8,2,9.288389,3.141038
15,10000000,8,2,9.003331,3.141072
16,10000000,8,2,18.549379,3.141776
17,10000000,8,2,21.599705,3.140788
18,10000000,8,2,15.218865,3.142681
19,10000000,8,2,19.73506,3.141544
20,10000000,8,2,21.886059,3.142461
1,10000000,8,4,39.964133,3.141499
2,10000000,8,4,38.4451,3.141675
3,10000000,8,4,44.774244,3.141246
4,10000000,8,4,40.347981,3.14194
5,10000000,8,4,40.482444,3.141663
6,10000000,8,4,42.133427,3.141857
7,10000000,8,4,39.593399,3.141544
8,10000000,8,4,37.00199,3.141464
9,10000000,8,4,43.004327,3.141524
10,10000000,8,4,37.983027,3.141328
11,10000000,8,4,38.700542,3.141888
12,10000000,8,4,37.762939,3.141247
13,10000000,8,4,38.026601,3.14143
14,10000000,8,4,38.212958,3.141821
15,10000000,8,4,38.731341,3.14177
16,10000000,8,4,44.130874,3.141542
17,10000000,8,4,48.8584,3.141848
18,10000000,8,4,46.579344,3.141443
19,10000000,8,4,39.286105,3.141266
20,10000000,8,4,42.189046,3.14225
1,10000000,8,8,89.939819,3.141739
2,10000000,8,8,93.910142,3.141804
3,10000000,8,8,87.060464,3.141711
4,10000000,8,8,89.667231,3.141607
5,10000000,8,8,93.676609,3.141849
6,10000000,8,8,94.177509,3.141713
7,10000000,8,8,90.539536,3.142021
8,10000000,8,8,84.070384,3.141494
9,10000000,8,8,81.627122,3.141896
10,10000000,8,8,89.510008,3.141841
11,10000000,8,8,79.935982,3.141821
12,10000000,8,8,93.951802,3.141761
13,10000000,8,8,92.574047,3.14174
14,10000000,8,8,91.560454,3.141739
15,10000000,8,8,89.058926,3.141409
16,10000000,8,8,95.919341,3.141532
17,10000000,8,8,89.87152,3.141695
18,10000000,8,8,88.109454,3.141672
19,10000000,8,8,85.753731,3.141631
20,10000000,8,8,87.816818,3.141641